…
``` r
maf.file
```

    ## # A tibble: 29,959 x 120
    ##    Hugo_Symbol Entrez_Gene_Id Center NCBI_Build Chromosome Start_Position
    ##    <chr>                <int> <chr>  <chr>      <chr>               <int>
    ##  1 BCAN                 63827 BI     GRCh38     chr1            156651635
    ##  2 TNN                  63923 BI     GRCh38     chr1            175135891
    ##  3 PM20D1              148811 BI     GRCh38     chr1            205850012
    ##  4 CR1                   1378 BI     GRCh38     chr1            207523807
    ##  5 MLK4                 84451 BI     GRCh38     chr1            233372058
    ##  6 ITSN2                50618 BI     GRCh38     chr2             24310368
    ##  7 GLB1L                79411 BI     GRCh38     chr2            219237134
    ##  8 OXTR                  5021 BI     GRCh38     chr3              8753149
    ##  9 TGFBR2                7048 BI     GRCh38     chr3             30671679
    ## 10 CACNA1D                776 BI     GRCh38     chr3             53718358
    ## # ... with 29,949 more rows, and 114 more variables: End_Position <int>,
    ## #   Strand <chr>, Variant_Classification <chr>, Variant_Type <chr>,
    ## #   Reference_Allele <chr>, Tumor_Seq_Allele1 <chr>, Tumor_Seq_Allele2 <chr>,
    ## #   dbSNP_RS <chr>, dbSNP_Val_Status <chr>, Tumor_Sample_Barcode <chr>,
    ## #   Matched_Norm_Sample_Barcode <chr>, Match_Norm_Seq_Allele1 <lgl>,
    ## #   Match_Norm_Seq_Allele2 <lgl>, Tumor_Validation_Allele1 <chr>,
    ## #   Tumor_Validation_Allele2 <chr>, Match_Norm_Validation_Allele1 <lgl>,
    ## #   Match_Norm_Validation_Allele2 <lgl>, Verification_Status <lgl>,
    ## #   Validation_Status <lgl>, Mutation_Status <chr>, Sequencing_Phase <lgl>,
…
